Programming Assignment
…
```
## Rows: 50 Columns: 5
## ── Column specification ────────────────────────────────────────────────────────
## Delimiter: ","
## dbl (5): obs, s_cog, s_skewness, sh_cog, sh_skewness
## 
## ℹ Use `spec()` to retrieve the full column specification for this data.
## ℹ Specify the column types or set `show_col_types = FALSE` to quiet this message.
```

---
#Tidying data

```
## # A tibble: 100 × 4
##      obs phoneme   cog skewness
##    <dbl> <chr>   <dbl>    <dbl>
##  1     1 s       3285.     2.72
##  2     1 sh      2556.     2.31
##  3     2 s       3511.     3.09
##  4     2 sh      2781.     2.47
##  5     3 s       4029.     3.33
##  6     3 sh      2979.     2.48
##  7     4 s       4123.     3.00
##  8     4 sh      2997.     2.45
##  9     5 s       4664.     2.88
## 10     5 sh      3020.     2.65
## # ℹ 90 more rows
```
…
